<?xml version="1.0" encoding="UTF-8" standalone="no"?>
<!-- Created with Inkscape (http://www.inkscape.org/) -->

<svg
   xmlns:dc="http://purl.org/dc/elements/1.1/"
   xmlns:cc="http://creativecommons.org/ns#"
   xmlns:rdf="http://www.w3.org/1999/02/22-rdf-syntax-ns#"
   xmlns:svg="http://www.w3.org/2000/svg"
   xmlns="http://www.w3.org/2000/svg"
   xmlns:sodipodi="http://sodipodi.sourceforge.net/DTD/sodipodi-0.dtd"
   xmlns:inkscape="http://www.inkscape.org/namespaces/inkscape"
   width="1280"
   height="720"
   id="svg2"
   version="1.1"
   inkscape:version="0.48.4 r9939"
   sodipodi:docname="intro.svg">
  <defs
     id="defs4">
    <linearGradient
       id="linearGradient3755">
      <stop
         style="stop-color:#dd4814;stop-opacity:1;"
         offset="0"
         id="stop3757" />
      <stop
         style="stop-color:#d70751;stop-opacity:1;"
         offset="1"
         id="stop3759" />
    </linearGradient>
  </defs>
  <sodipodi:namedview
     id="base"
     pagecolor="#ffffff"
     bordercolor="#666666"
     borderopacity="1.0"
     inkscape:pageopacity="0.0"
     inkscape:pageshadow="2"
     inkscape:zoom="0.7"
     inkscape:cx="543.39107"
     inkscape:cy="357.70929"
     inkscape:document-units="px"
     inkscape:current-layer="layer1"
     showgrid="false"
     width="1280px"
     inkscape:window-width="1855"
     inkscape:window-height="1056"
     inkscape:window-x="65"
     inkscape:window-y="24"
     inkscape:window-maximized="1"
     showguides="true"
     inkscape:guide-bbox="true" />
  <metadata
     id="metadata7">
    <rdf:RDF>
      <cc:Work
         rdf:about="">
        <dc:format>image/svg+xml</dc:format>
        <dc:type
           rdf:resource="http://purl.org/dc/dcmitype/StillImage" />
        <dc:title></dc:title>
      </cc:Work>
    </rdf:RDF>
  </metadata>
  <g
     inkscape:label="Layer 1"
     inkscape:groupmode="layer"
     id="layer1"
     transform="translate(0,-332.36218)">
    <rect
       style="fill:#ffffff;fill-opacity:1;stroke:none"
       id="rect4774"
       width="1280"
       height="720"
       x="0"
       y="332.36215" />
    <g
       inkscape:label="Livello 1"
       transform="matrix(0.30125198,0,0,0.30125198,182.37226,296.98273)"
       id="layer1-6">
      <g
         inkscape:export-ydpi="270"
         inkscape:export-xdpi="270"
         inkscape:export-filename="C:\Users\m.alici\Dropbox\ducc-it\ducc-it_banner_half-white.png"
         transform="translate(-464.97929,230.91621)"
         id="g3852">
        <g
           id="g3801">
          <g
             inkscape:export-ydpi="96.593346"
             inkscape:export-xdpi="96.593346"
             inkscape:export-filename="/tmp/ducc-it_banner_stable.png"
             transform="translate(-8,0)"
             id="g4193">
            <g
               transform="matrix(4.1666666,0,0,1,190.39039,-911.5592)"
               id="g4077">
              <rect
                 inkscape:export-ydpi="200"
                 inkscape:export-xdpi="200"
                 inkscape:export-filename="/tmp/ducc-it_logo_alpha_02.png"
                 y="1291.4045"
                 x="44.644157"
                 width="100"
                 style="fill:#009246;fill-opacity:1;stroke:none"
                 id="rect4079"
                 height="10" />
              <rect
                 inkscape:export-ydpi="200"
                 inkscape:export-xdpi="200"
                 inkscape:export-filename="/tmp/ducc-it_logo_alpha_02.png"
                 y="1291.4045"
                 x="244.64417"
                 width="100"
                 style="fill:#ce2b37;fill-opacity:1;stroke:none"
                 id="rect4081"
                 height="10" />
              <rect
                 inkscape:export-ydpi="200"
                 inkscape:export-xdpi="200"
                 inkscape:export-filename="/tmp/ducc-it_logo_alpha_02.png"
                 y="1291.4045"
                 x="144.64417"
                 width="100"
                 style="fill:#ffffff;fill-opacity:1;stroke:none"
                 id="rect4083"
                 height="10" />
            </g>
            <text
               xml:space="preserve"
               inkscape:export-ydpi="200"
               inkscape:export-xdpi="200"
               inkscape:export-filename="/tmp/ducc-it_logo_alpha_02.png"
               sodipodi:linespacing="100%"
               y="351.10086"
               x="989.23169"
               style="font-size:345.18911743px;font-style:normal;font-variant:normal;font-weight:normal;font-stretch:normal;text-align:center;line-height:100%;letter-spacing:0px;word-spacing:0px;writing-mode:lr-tb;text-anchor:middle;fill:#000000;fill-opacity:1;stroke:none;font-family:Garamond;-inkscape-font-specification:Garamond"
               id="text3968"><tspan
                 sodipodi:role="line"
                 y="351.10086"
                 x="989.23175"
                 style="font-style:normal;font-variant:normal;font-weight:normal;font-stretch:normal;fill:#000000;fill-opacity:1;stroke:none;font-family:Ubuntu;-inkscape-font-specification:Ubuntu"
                 id="tspan3970"><tspan
                   style="font-style:normal;font-variant:normal;font-weight:normal;font-stretch:normal;fill:#000000;fill-opacity:1;stroke:none;font-family:Ubuntu;-inkscape-font-specification:Ubuntu"
                   id="tspan3972">DU</tspan><tspan
                   style="font-style:normal;font-variant:normal;font-weight:normal;font-stretch:normal;fill:#000000;fill-opacity:1;stroke:none;font-family:Ubuntu;-inkscape-font-specification:Ubuntu"
                   id="tspan3974">CC-</tspan><tspan
                   style="font-style:normal;font-variant:normal;font-weight:normal;font-stretch:normal;fill:#000000;fill-opacity:1;stroke:none;font-family:Ubuntu;-inkscape-font-specification:Ubuntu"
                   id="tspan3977">IT</tspan></tspan></text>
          </g>
          <g
             transform="matrix(1.0214219,0,0,1.0214219,374.46165,-416.86685)"
             id="g5957">
            <path
               inkscape:connector-curvature="0"
               style="fill:#dd4814;stroke:none"
               id="path5959"
               d="m -156.40625,563.53125 c -6.9986,0.1062 -13.73645,4.11325 -17.21875,10.15625 -3.4536,5.765 -3.77875,13.2705 -0.84375,19.3125 2.9486,6.2491 9.20825,10.7795 16.09375,11.5625 6.4121,0.7889 13.1112,-1.58145 17.5,-6.34375 4.2705,-4.5626 6.34685,-11.0658 5.34375,-17.25 -0.9985,-6.6458 -5.46665,-12.66795 -11.59375,-15.46875 -2.8813,-1.3548 -6.09155,-2.03425 -9.28125,-1.96875 z m -54.28125,22.40625 c -13.3165,0.1809 -26.546,3.3203 -38.5,9.1875 l 14.25,25.4375 c 10.1351,-4.6752 21.55995,-6.4633 32.65625,-5.1875 0.2271,-1.1094 0.4606,-2.23435 0.6875,-3.34375 0.6539,1.2429 1.27525,2.4645 1.96875,3.6875 4.0911,0.6435 8.1291,1.76095 12,3.21875 -5.4162,-5.8595 -9.6441,-13.0209 -11.375,-20.875 -0.8928,-3.8278 -1.25545,-7.7585 -1.28125,-11.6875 -3.4474,-0.3419 -6.94195,-0.4929 -10.40625,-0.4375 z m 19.875,1.90625 c 0.01,0.1063 0.0252,0.23745 0.0312,0.34375 0.6734,11.9261 6.6377,23.2456 15.5,31.125 8.0614,7.2531 18.6689,11.99685 29.625,11.96875 4.529,-0.035 9.0628,-0.9089 13.1875,-2.75 -3.731,-5.9364 -8.11715,-11.48115 -13.09375,-16.40625 -8.1274,3.0544 -17.6145,2.2894 -25.125,-2.0625 -7.2782,-4.1303 -12.67925,-11.4141 -14.40625,-19.625 -0.1537,-0.4166 -0.0887,-1.0065 -0.34375,-1.3125 -1.7813,-0.4829 -3.5753,-0.91985 -5.375,-1.28125 z m -69.25,13.5625 -0.0625,0.0625 c -17.1559,11.5501 -30.13909,29.07245 -36.09375,48.90625 -0.3387,1.0995 -0.6414,2.1992 -0.9375,3.3125 6.96796,5.6927 11.0906,14.69955 10.8125,23.71875 -0.1743,8.3507 -4.07024,16.52215 -10.4375,21.90625 -0.5191,0.2192 -0.3256,0.66955 -0.1875,1.09375 5.00596,18.6742 16.2499,35.59345 31.4375,47.53125 1.7737,1.3998 3.58635,2.7312 5.46875,4 4.9916,-8.3312 10.0083,-16.63755 15,-24.96875 -12.3808,-8.7641 -21.376,-22.282 -24.5625,-37.125 -3.2104,-14.5905 -0.91265,-30.35335 6.46875,-43.34375 4.4615,-7.9051 10.69115,-14.8096 18.09375,-20.0625 -4.9917,-8.3437 -10.0084,-16.68755 -15,-25.03125 z m 98.28125,36.03125 c 0.068,0.08 0.15105,0.1698 0.21875,0.25 1.0777,1.3007 2.1012,2.63935 3.0625,4.03125 7.4566,1.9726 15.23585,2.1004 22.90625,1.875 0.4208,0.026 0.30525,0.5508 -0.0312,0.625 -3.7466,1.6581 -7.9287,2.10215 -12,1.96875 -2.9523,-0.1163 -5.8682,-0.51425 -8.75,-1.15625 4.7027,7.826 7.62115,16.7122 8.46875,25.8125 9.698,-0.1417 19.39585,-0.2958 29.09375,-0.4375 -0.7653,-11.3607 -3.72425,-22.5541 -8.65625,-32.8125 -11.1857,3.0237 -23.1275,2.71125 -34.3125,-0.15625 z m -154.5625,18.6875 c -7.3401,-0.036 -14.43485,4.20505 -17.90625,10.65625 -3.4036,6.1583 -3.34745,14.08465 0.21875,20.15625 3.165,5.5517 9.03745,9.4947 15.40625,10.1875 6.3629,0.7736 13.003,-1.57855 17.375,-6.28125 4.1461,-4.3751 6.19921,-10.59835 5.46875,-16.59375 -0.7598,-6.5654 -4.853,-12.6156 -10.6875,-15.6875 -3.0147,-1.6217 -6.4455,-2.4644 -9.875,-2.4375 z m 168.40625,26.375 0,0.125 c -1.3956,15.1863 -8.74845,29.7228 -20.09375,39.875 -3.2935,2.9618 -6.9138,5.56735 -10.75,7.78125 4.4406,1.5048 9.10155,2.20305 13.71875,2.96875 2.7063,0.5293 5.41735,1.1196 8.03125,2 0.36,0.1068 0.27885,0.60265 -0.0937,0.59375 -1.5833,0.1037 -3.19265,-0.0775 -4.78125,-0.0625 -7.1392,-0.1827 -14.3501,-0.30875 -21.3125,-2.03125 -0.7642,-0.1524 -1.5865,-0.67995 -2.3125,-0.15625 -15.6222,6.599 -34.01465,6.3058 -49.40625,-0.8125 -4.7375,8.4739 -9.48125,16.9635 -14.21875,25.4375 18.3127,9.0208 39.72535,11.49195 59.65625,7.03125 1.3923,-0.303 2.77555,-0.65495 4.15625,-1.03125 1.4804,-8.986 7.35675,-17.10655 15.40625,-21.34375 7.0331,-3.7898 15.6489,-4.5825 23.25,-2.0625 0.3957,0.066 0.80425,0.3898 1.15625,0.3125 13.5758,-13.3941 22.8464,-31.1715 25.8125,-50.0625 0.4374,-2.6958 0.71265,-5.3994 0.90625,-8.125 l -29.125,-0.4375 z m -8.34375,66.15625 c -7.7969,0.068 -15.28285,5.0499 -18.40625,12.1875 -2.7554,6.0528 -2.31335,13.45015 1.21875,19.09375 3.1463,5.1812 8.6794,8.83755 14.6875,9.65625 5.8846,0.8464 12.10605,-1.03505 16.53125,-4.96875 5.0163,-4.3875 7.64395,-11.3162 6.78125,-17.9375 -0.8635,-7.1194 -5.66935,-13.59365 -12.28125,-16.34375 -2.6956,-1.1615 -5.60105,-1.7382 -8.53125,-1.6875 z" />
            <path
               inkscape:connector-curvature="0"
               style="fill:#d70751;stroke:none"
               id="path5961"
               d="m -178.10183,465.66507 c -3.6871,0.4405 -7.2804,1.5781 -10.9875,1.9 -0.582,0.082 -1.4182,-0.1823 -1.3812,-0.8907 -12.0368,5.1882 -24.4597,9.8392 -35.2813,17.325 -2.2082,1.5496 -4.3228,3.2471 -6.2656,5.1094 -0.1181,-0.7209 -0.1918,-1.6054 -0.35,-2.225 -4.0343,4.3179 -8.7095,7.9796 -12.9529,12.089 -3.2813,3.1169 -6.5901,6.3698 -8.89,10.3146 -0.5591,1.0047 -1.0014,2.0903 -1.1758,3.2339 -0.5541,0.2703 -1.49,0.041 -1.6901,0.7963 -2.5617,4.4526 -4.1115,9.3949 -6.365,13.9907 -0.8809,1.3682 -1.9058,2.9765 -3.6168,3.3224 -0.3217,0.033 -0.6491,-0.014 -0.9438,-0.1438 -5.2333,10.5641 -9.1146,21.7541 -12.4794,33.0477 -0.092,0.6328 -0.6594,1.2964 -0.2612,1.8961 0.7816,2.0932 0.6647,4.3884 0.7379,6.5937 0.038,8.0109 -0.6107,16.0237 -0.1473,24.0313 -0.06,3.1215 -0.2318,6.2423 -0.1187,9.3656 0.088,4.1162 0.3972,8.2269 0.9031,12.3125 3.5101,-4.1762 7.4025,-8.0307 11.6031,-11.5125 -0.7017,-9.6352 0.59,-19.2578 1.5957,-28.8234 0.4152,-3.5788 0.7272,-7.1717 1.0952,-10.7529 0.9187,-4.6913 3.62,-8.7464 5.7378,-12.9525 1.4318,-2.7291 2.7916,-5.4821 3.9495,-8.3368 -0.8365,-0.1497 -1.6726,-0.3021 -2.5094,-0.45 2.8598,-4.8887 6.628,-9.1719 10.4031,-13.3688 5.0428,-5.4799 10.439,-10.7078 16.6289,-14.8828 2.8371,-1.8538 5.9432,-3.6363 9.4024,-3.8328 0.4024,-0.017 0.8698,0.1556 1.0424,-0.3322 0.2666,-0.3576 0.678,-0.8311 0.8513,-1.1272 -0.8382,0.4881 -1.8316,1.1954 -2.8469,0.8719 -0.4246,-0.1348 -0.6527,-0.7975 -0.1625,-1.0062 3.3749,-3.4171 7.0781,-6.8471 11.7744,-8.2491 3.196,-0.9314 6.6736,-0.5893 9.8301,-1.6681 0.2315,-0.1747 1.4091,-0.7667 0.8799,-0.6391 -1.4737,0.3493 -2.9642,0.9828 -4.4969,0.8156 -0.5346,-0.1987 -0.5401,-0.9404 -0.1531,-1.2875 0.5971,-0.8946 1.8058,-0.7839 2.6969,-1.1468 3.4375,-1.0122 6.6752,-2.6547 9.6261,-4.6832 3.3851,-2.1449 7.2958,-3.2955 11.2433,-3.8701 1.5641,-0.2179 3.1464,-0.5063 4.7118,-0.5499 0.31,0.142 0.5823,0.4418 0.5813,0.7938 8.4967,-1.7519 17.304,-1.4606 25.8477,-0.2103 7.8161,1.1991 15.6053,3.2932 22.5515,7.1383 7.9153,4.4568 14.6836,10.7007 20.4616,17.6614 6.9883,8.5047 12.547805,18.3313 15.264205,29.0543 0.8084,3.2509 1.3239,6.5736 1.4625,9.9219 0.5393,0.019 1.1794,0.4412 0.9562,1.0563 -0.2476,5.0263 0.15,10.0719 0.1157,15.1062 -0.01,3.7089 -0.2143,7.4327 -0.95,11.0719 0.3493,-0.7468 0.7214,-1.4784 1.0937,-2.2156 0.5223,4.6217 -0.441,9.2843 -2.2478,13.53 -0.6882,1.7705 -1.4162,3.5268 -2.0272,5.3262 -1.3071,0.6629 -2.6165,1.3211 -3.925,1.9813 -0.7189,1.5073 -1.7318,3.2027 -1.1187,4.9218 0.239,1.3 -0.1746,2.6262 -0.7813,3.7563 -0.779,0.9549 -1.824205,1.6362 -2.695505,2.5093 -4.5232,3.9985 -8.9381,8.1823 -13.9729,11.5292 -0.7726,0.4483 -1.6349,1.0713 -2.5722,0.9084 -0.5263,-0.1227 -0.837,-0.7894 -0.5,-1.2375 -2.0687,1.9469 -4.0913,4.0652 -6.7659,5.1604 -1.8931,0.8724 -3.9006,1.4696 -5.9091,2.0208 -0.016,-0.2519 -0.118,-0.7984 -0.4875,-0.5625 -6.2577,2.8934 -13.4286,3.4879 -20.1906,2.375 -12.415,-2.1474 -23.6397,-9.6559 -30.892,-19.8778 -5.1351,-7.1934 -8.2371,-15.8568 -8.4862,-24.7284 -0.5036,0.371 -0.9519,0.8024 -1.1031,1.4375 -0.4406,-1.0959 -0.2722,-2.3123 -0.377,-3.4656 -0.2809,-12.9259 5.7321,-25.9383 16.1208,-33.6876 4.1296,-3.0387 8.8449,-5.2362 13.7527,-6.6855 10.834,-3.0303 23.0509,-1.2346 32.3004,5.2387 -6.6281,-6.6289 -15.7108,-11.0484 -25.1844,-11.2102 -5.1607,-0.1004 -10.3629,0.7463 -15.1,2.7727 -6.1763,2.5658 -11.8431,6.746 -15.5026,12.41 -0.5656,0.8696 -1.0115,1.8236 -1.5286,2.715 -3.3384,2.158 -5.0612,5.9469 -6.434,9.5459 -1.1419,2.8261 -1.7617,5.9092 -3.4223,8.4978 -0.3446,0.3879 -0.7542,0.7345 -0.6908,1.3234 -1.1747,9.2111 -1.0569,18.8738 2.3033,27.6297 2.9557,7.8738 8.4737,14.488 14.6688,20.0688 3.5565,3.2563 7.3929,6.2103 11.2,9.1812 0.3722,0.3588 0.703,0.8184 0.7218,1.3532 12.3542,4.6126 26.0276,6.2921 39.0164,3.5236 11.3984,-2.3886 22.0249,-8.1421 30.5478,-16.0242 2.656205,-2.4492 5.088805,-5.1968 7.939905,-7.4252 0.3402,-0.2317 0.7205,-0.4332 1.1366,-0.4774 -0.3762,-1.2087 -0.2631,-2.5224 0.3122,-3.648 0.8632,-2.0669 2.1967,-3.8931 3.4315,-5.7551 0.7654,1.0494 1.5307,2.0989 2.2938,3.15 0.1715,-3.5089 2.0557,-6.5689 3.5361,-9.6572 2.1681,-4.2835 4.2432,-8.8844 4.0514,-13.8053 -0.152,-0.6573 -0.022,-1.3708 0.5312,-1.7937 0.2663,-0.2539 0.6605,-0.4256 1.0281,-0.3157 -0.091,-1.9689 0.045,-3.9416 0.3719,-5.8812 0.6038,1.5367 1.2324,3.0645 1.8375,4.6 -0.083,-4.2623 1.6339,-8.2373 3.15,-12.1345 0.18,-0.4975 0.3418,-0.9901 0.4656,-1.503 -0.6774,0.35 -1.683,0.6282 -2.2218,-0.1031 -0.9801,-1.2159 -0.9742,-2.8884 -1.2,-4.3688 -0.1548,-1.5926 -0.3598,-3.3293 0.3375,-4.8187 0.1828,-0.2509 0.5114,-0.365 0.7875,-0.425 -2.1603,-2.6624 -3.1048,-6.0969 -3.9157,-9.375 -0.1807,-0.5989 0.457,-1.1604 1.0219,-0.8969 0.8202,0.3795 1.1493,1.3307 1.6308,2.0329 0.2857,0.4978 0.5663,1.0097 0.9255,1.4671 -0.6952,-3.7123 -1.9991,-7.3356 -2.1219,-11.1438 -0.5215,-0.9656 -0.9426,-2.1742 -1.675,-2.9125 -0.074,0.559 -0.4495,1.2714 -1.1188,1.1438 -1.0742,-0.4821 -1.6841,-1.6648 -1.9043,-2.7809 -0.44,-1.6936 -1.1057,-3.4784 -0.6925,-5.2347 0.3199,-0.8509 1.3682,-1.0317 2.1579,-0.8049 0.7602,0.135 1.9295,0.5298 2.3983,-0.3295 0.335,-0.6674 0.2654,-1.4457 0.375,-2.1781 2.9869,4.1927 5.1916,8.8711 6.9906,13.6812 -0.5817,-1.769 -1.2201,-3.522 -1.8718,-5.2719 0.2112,-0.01 0.8012,0.6221 0.7218,0.1157 0.086,-2.3133 -0.7886,-4.5611 -0.5968,-6.8782 0.1239,-0.5413 0.8814,-0.6985 1.1968,-0.2312 0.1691,0.1124 0.5611,0.7368 0.3872,0.3082 -3.8686,-11.3334 -10.8584,-21.3516 -19.1294,-29.898 -5.4817,-5.6182 -11.6202,-10.6453 -18.370305,-14.6758 0.6717,0.6793 1.4254,1.4057 1.6969,2.3468 0.081,0.5763 -0.7241,1.0569 -1.1062,0.5282 -2.4457,-1.5707 -5.1298,-2.9331 -6.9907,-5.2157 -0.4747,-0.6962 -0.6799,-1.5395 -1.0687,-2.2875 -2.3459,-0.9883 -5.0776,-1.6031 -7.5357,-0.6034 -1.4046,0.447 -2.9,0.8569 -4.3862,0.6441 -5.658,-3.0644 -11.5857,-5.645 -17.8031,-7.35 -3.0951,-0.9283 -6.1876,-1.8759 -9.225,-2.9719 0.1794,0.8483 0.3522,1.6979 0.5281,2.5469 -3.2206,-1.2273 -6.8094,-1.6851 -10.1816,-0.8159 -2.9695,0.6211 -6.0197,1.0604 -9.0495,0.7357 -0.4742,-0.039 -1.3587,-0.013 -1.2876,-0.6917 0.209,-0.6932 1.0751,-0.8251 1.6531,-1.1031 0.5644,-0.1623 -0.464,-0.076 -0.6553,-0.1476 -2.569,-0.2828 -5.1649,-0.9036 -7.7562,-0.4855 -1.4459,0.2169 -2.8662,0.5849 -4.3229,0.7362 1.6626,-1.5167 3.6766,-2.5328 5.6656,-3.5531 l -0.099,0.011 -0.013,0 z m 13.6844,1.65 c 0.1901,0.2586 0.441,0.2079 0.7156,0.091 -0.2397,-0.038 -0.4879,-0.076 -0.7156,-0.091 z m -109.1406,55.1312 c -0.4881,0.04 -0.9705,0.2973 -1.4781,0.2281 -0.01,1.4691 -0.329,2.9355 -0.9344,4.2625 0.6484,-0.517 1.5223,-0.8616 1.7086,-1.7508 0.3687,-0.8704 0.8007,-1.7869 0.7758,-2.7367 -0.024,0 -0.048,-0.012 -0.072,0 z m -7.675,21.3719 c -0.9925,1.4711 -1.5593,3.2896 -1.1625,5.05 0.077,0.2924 0.2525,-0.8043 0.3545,-1.1035 0.3048,-1.3017 0.5732,-2.6386 0.808,-3.9465 z m 161.5062,28.9125 c -0.6491,0.5699 -0.8272,1.4972 -1.1125,2.2812 0.1004,0.4471 0.4813,0.8434 0.5719,1.3125 0.2281,0.574 0.388,1.4303 0.7219,1.8219 0.3704,-1.1587 0.1754,-2.4247 0.2059,-3.6312 -0.032,-0.5817 -0.021,-1.3671 -0.3872,-1.7844 z m -6.6375,25.0406 c -0.8629,0.5152 -1.6986,1.0831 -2.6437,1.425 0.486,0.1464 1.0055,0.3538 1.2812,0.8125 0.5132,-0.7411 1.0042,-1.5104 1.4469,-2.2875 l -0.084,0.05 z m -16.2406,9.4313 c -3.2623,0.5878 -6.605,0.4452 -9.8969,0.2343 -0.1711,0.044 -0.9609,-0.043 -0.6406,0.1813 1.4307,0.8426 3.0703,1.199 4.6625,1.6375 0.9788,0.2306 1.9609,0.426 2.9563,0.5875 1.0994,-0.8585 2.1406,-1.7502 3.175,-2.6875 -0.085,0.016 -0.1709,0.031 -0.2563,0.047 z m -52.3031,5.8406 c 0.1616,0.3063 0.4902,0.8667 0.1906,0.25 -0.078,-0.2138 -0.5709,-0.8754 -0.1906,-0.25 z m -6.3688,1.4812 c -0.014,0.6234 -0.3568,1.2565 -0.2784,1.8463 2.3384,3.1901 4.3607,6.7404 7.0628,9.56 -2.1963,-3.8688 -4.7324,-7.5681 -6.7656,-11.5313 l -0.015,0.099 0,0.026 z m 110.056305,0.1719 c -0.3319,0.5547 -0.8884,1.2128 -0.625,1.8969 0.2792,-0.5941 0.5654,-1.2538 0.625,-1.8969 z m -102.996905,4.95 c 4.6743,7.121 11.406,12.5885 18.6885,16.8787 7.9624,4.6162 16.831,7.9434 26.0487,8.7632 3.6354,0.293 7.3506,0.1436 10.8659,-0.8356 -8.1325,0.1656 -16.4406,-0.3837 -24.125,-3.2094 -2.7725,-1.5316 -5.5202,-3.2781 -7.6343,-5.6563 -0.035,0.4361 0.1532,0.8459 0.2687,1.2563 -5.1992,-2.3327 -9.9938,-5.5848 -14.1656,-9.475 1.7461,2.1979 3.7332,4.1588 5.8594,5.9687 0.2396,0.4039 -0.3683,0.5006 -0.625,0.3407 -2.7468,-0.951 -4.9272,-3.0493 -6.9544,-5.0793 -2.9688,-2.9227 -5.4648,-6.3008 -8.405,-9.2332 0.059,0.094 0.1187,0.1875 0.1781,0.2812 z m -64.5562,21.5469 c -3.7775,5.2259 -6.7017,11.0274 -8.6469,17.1781 9.7807,20.7553 24.3207,39.2966 42.3758,53.4458 11.6638,9.1199 24.9152,16.3569 39.2158,20.3333 2.7,0.8868 5.4739,1.5346 8.3021,1.8709 5.5658,0.7437 11.2042,0.8374 16.8157,0.9719 -4.3501,-1.1104 -8.8511,-1.5462 -13.2282,-2.525 -2.7039,-0.6472 -5.4046,-1.3934 -7.9614,-2.485 -3.9075,-1.8655 -7.2001,-4.7795 -10.0312,-8.0141 -0.8863,-0.9572 -1.7716,-1.9017 -2.7011,-2.8228 0.4961,0.8843 0.9954,1.7667 1.4875,2.6531 -3.6697,-1.2912 -7.4379,-2.667 -10.3694,-5.3053 -1.909,-1.4425 -4.2266,-2.1428 -6.465,-2.8822 0.7403,-0.9908 1.6314,-2.0313 2.2781,-2.9906 -2.8284,-0.7633 -5.0867,-2.8259 -7.1543,-4.8089 -1.2688,-1.2731 -2.4507,-2.6602 -3.3363,-4.2286 -1.2864,0.051 -2.5728,0.1022 -3.8594,0.15 -2.6614,-3.3981 -5.5246,-6.8232 -6.848,-10.9903 -0.1037,-0.3792 -0.1983,-0.7602 -0.2488,-1.1503 -0.3002,0.5416 -0.6025,1.082 -0.9,1.625 -2.3817,-3.6395 -5.2109,-6.9673 -7.6658,-10.5725 -1.5079,-2.1624 -3.0851,-4.335 -4.0155,-6.815 -0.2572,-0.5935 -0.095,-1.5218 0.6656,-1.6 -1.759,-1.4106 -3.1964,-3.227 -4.2312,-5.2344 0.5437,-0.6201 1.0856,-1.2418 1.625,-1.8656 -2.7149,-3.6482 -5.2117,-7.5541 -6.6358,-11.8933 -0.2843,-0.9239 -0.3326,-1.9027 -0.1173,-2.8505 1.179,1.692 2.5655,3.4397 4.5531,4.2125 -1.5352,-3.5904 -3.0381,-7.2701 -5.6781,-10.2031 -1.0245,-1.0702 -2.4683,-1.677 -3.9495,-1.6321 -1.2276,-0.1242 -2.4384,-0.6858 -3.2162,-1.6554 l -0.058,0.082 0,0 z" />
          </g>
          <text
             xml:space="preserve"
             sodipodi:linespacing="100%"
             y="1733.7745"
             x="-363.06525"
             transform="matrix(0,-1,1,0,0,0)"
             style="font-size:116.89427948px;font-style:normal;font-variant:normal;font-weight:normal;font-stretch:normal;text-align:start;line-height:100%;letter-spacing:0px;word-spacing:0px;writing-mode:lr-tb;text-anchor:start;fill:#d70751;fill-opacity:1;stroke:none;font-family:Ubuntu;-inkscape-font-specification:Ubuntu"
             id="text2998"><tspan
               sodipodi:role="line"
               y="1733.7745"
               x="-363.06525"
               id="tspan3000">20</tspan></text>
          <text
             xml:space="preserve"
             sodipodi:linespacing="100%"
             y="1733.7745"
             x="-230.18933"
             transform="matrix(0,-1,1,0,0,0)"
             style="font-size:116.89427948px;font-style:normal;font-variant:normal;font-weight:normal;font-stretch:normal;text-align:start;line-height:100%;letter-spacing:0px;word-spacing:0px;writing-mode:lr-tb;text-anchor:start;fill:#dd4814;fill-opacity:1;stroke:none;font-family:Ubuntu;-inkscape-font-specification:Ubuntu"
             id="text3004"><tspan
               sodipodi:role="line"
               y="1733.7745"
               x="-230.18933"
               id="year">17</tspan></text>
        </g>
      </g>
    </g>
    <text
       xml:space="preserve"
       style="font-size:40px;font-style:normal;font-variant:normal;font-weight:600;font-stretch:normal;line-height:125%;letter-spacing:0px;word-spacing:0px;fill:#000000;fill-opacity:1;stroke:none;font-family:Source Serif Pro;-inkscape-font-specification:Source Serif Pro Semi-Bold"
       x="640"
       y="701.21936"
       id="text4164"
       sodipodi:linespacing="125%"><tspan
         sodipodi:role="line"
         id="tspan4166"
         x="640"
         y="701.21936"
         style="font-size:80px;font-style:normal;font-variant:normal;font-weight:500;font-stretch:normal;text-align:center;text-anchor:middle;font-family:Ubuntu;-inkscape-font-specification:Ubuntu Medium">Titolo del talk</tspan></text>
    <text
       xml:space="preserve"
       style="font-size:40px;font-style:normal;font-variant:normal;font-weight:600;font-stretch:normal;line-height:125%;letter-spacing:0px;word-spacing:0px;fill:#000000;fill-opacity:1;stroke:none;font-family:Source Serif Pro;-inkscape-font-specification:Source Serif Pro Semi-Bold"
       x="630.57141"
       y="429.07648"
       id="text4206"
       sodipodi:linespacing="125%"><tspan
         sodipodi:role="line"
         id="tspan4208"
         x="630.57141"
         y="429.07648"
         style="font-size:35px;font-style:normal;font-variant:normal;font-weight:300;font-stretch:normal;font-family:Ubuntu;-inkscape-font-specification:Ubuntu Light">Villa Lattes, Vicenza: 6 e 7 maggio 2017</tspan></text>
    <text
       xml:space="preserve"
       style="font-size:40px;font-style:normal;font-variant:normal;font-weight:600;font-stretch:normal;line-height:125%;letter-spacing:0px;word-spacing:0px;fill:#da283f;fill-opacity:0.94117647;stroke:none;font-family:Source Serif Pro;-inkscape-font-specification:Source Serif Pro Semi-Bold"
       x="1235.6727"
       y="473.2236"
       id="text4206-7"
       sodipodi:linespacing="125%"><tspan
         sodipodi:role="line"
         id="tspan4208-5"
         x="1235.6727"
         y="473.2236"
         style="font-size:35px;font-style:normal;font-variant:normal;font-weight:300;font-stretch:normal;text-align:end;text-anchor:end;fill:#da283f;fill-opacity:0.94117647;font-family:Ubuntu;-inkscape-font-specification:Ubuntu Light">www.ducc.it</tspan></text>
    <text
       xml:space="preserve"
       style="font-size:40px;font-style:normal;font-variant:normal;font-weight:600;font-stretch:normal;line-height:125%;letter-spacing:0px;word-spacing:0px;fill:#000000;fill-opacity:1;stroke:none;font-family:Source Serif Pro;-inkscape-font-specification:Source Serif Pro Semi-Bold"
       x="640"
       y="774.07648"
       id="text4751"
       sodipodi:linespacing="125%"><tspan
         sodipodi:role="line"
         id="tspan4753"
         x="640"
         y="774.07648"
         style="font-style:normal;font-variant:normal;font-weight:300;font-stretch:normal;text-align:center;text-anchor:middle;font-family:Ubuntu;-inkscape-font-specification:Ubuntu Light">Nome Cognome</tspan></text>
  </g>
</svg>
